{
    "_id": "5be35e0b18aa5700010ede91",
    "192_168_5_2_information_07_11_18_21:50:03": {
        "ip": "192.168.5.2",
        "attack_details": {
            "attack_type": "syn_flood",
            "initial_attack_power": 30179,
            "peak_attack_power": 30179,
            "attack_direction": "incoming",
            "attack_protocol": "tcp",
            "total_incoming_traffic": 3682043,
            "total_outgoing_traffic": 1598407,
            "total_incoming_pps": 30179,
            "total_outgoing_pps": 27558,
            "total_incoming_flows": 0,
            "total_outgoing_flows": 0,
            "average_incoming_traffic": 3682043,
            "average_outgoing_traffic": 1598407,
            "average_incoming_pps": 30179,
            "average_outgoing_pps": 27558,
            "average_incoming_flows": 0,
            "average_outgoing_flows": 0,
            "incoming_ip_fragmented_traffic": 0,
            "outgoing_ip_fragmented_traffic": 0,
            "incoming_ip_fragmented_pps": 0,
            "outgoing_ip_fragmented_pps": 0,
            "incoming_tcp_traffic": 3682043,
            "outgoing_tcp_traffic": 1598407,
            "incoming_tcp_pps": 30179,
            "outgoing_tcp_pps": 27558,
            "incoming_syn_tcp_traffic": 3682043,
            "outgoing_syn_tcp_traffic": 0,
            "incoming_syn_tcp_pps": 30179,
            "outgoing_syn_tcp_pps": 0,
            "incoming_udp_traffic": 0,
            "outgoing_udp_traffic": 0,
            "incoming_udp_pps": 0,
            "outgoing_udp_pps": 0,
            "incoming_icmp_traffic": 0,
            "outgoing_icmp_traffic": 0,
            "incoming_icmp_pps": 0,
            "outgoing_icmp_pps": 0
        }
    }
}
